<svg width="30" height="17" viewBox="0 0 30 17" fill="none" xmlns="http://www.w3.org/2000/svg">
<rect width="30" height="1" fill="white"/>
<rect y="8" width="30" height="1" fill="white"/>
<rect y="16" width="30" height="1" fill="white"/>
</svg>
